Data Wrangling and Analyses with Tidyverse - Introduction to R
…
Selecting columns and filtering rows¶

To select columns of a data frame, use select(). The first argument to
this function is the data frame (variants), and the subsequent
arguments are the columns to keep.

r

select(variants, sample_id, REF, ALT, DP)

Output

# A tibble: 801 × 4
   sample_id  REF                              ALT                                            DP
   <chr>      <chr>                            <chr>                                       <dbl>
 1 SRR2584863 T                                G                                               4
 2 SRR2584863 G                                T                                               6
 3 SRR2584863 G                                T                                              10
 4 SRR2584863 CTTTTTTT                         CTTTTTTTT                                      12
 5 SRR2584863 CCGC                             CCGCGC                                         10
 6 SRR2584863 C                                T                                              10
 7 SRR2584863 C                                A                                               8
 8 SRR2584863 G                                A                                              11
 9 SRR2584863 ACAGCCAGCCAGCCAGCCAGCCAGCCAGCCAG ACAGCCAGCCAGCCAGCCAGCCAGCCAGCCAGCCAGCCAGCC…     3
10 SRR2584863 AT                               ATT                                             7
# … with 791 more rows
# ℹ Use `print(n = ...)` to see more rows

To select all columns except certain ones, put a "-" in front of the
variable to exclude it.

r

select(variants, -CHROM)

Output

# A tibble: 801 × 28
   sample_id      POS ID    REF   ALT    QUAL FILTER INDEL   IDV    IMF    DP    VDB   RPB   MQB
   <chr>        <dbl> <lgl> <chr> <chr> <dbl> <lgl>  <lgl> <dbl>  <dbl> <dbl>  <dbl> <dbl> <dbl>
 1 SRR2584863    9972 NA    T     G        91 NA     FALSE    NA NA         4 0.0257    NA    NA
 2 SRR2584863  263235 NA    G     T        85 NA     FALSE    NA NA         6 0.0961     1     1
 3 SRR2584863  281923 NA    G     T       217 NA     FALSE    NA NA        10 0.774     NA    NA
 4 SRR2584863  433359 NA    CTTT… CTTT…    64 NA     TRUE     12  1        12 0.478     NA    NA
 5 SRR2584863  473901 NA    CCGC  CCGC…   228 NA     TRUE      9  0.9      10 0.660     NA    NA
 6 SRR2584863  648692 NA    C     T       210 NA     FALSE    NA NA        10 0.268     NA    NA
 7 SRR2584863 1331794 NA    C     A       178 NA     FALSE    NA NA         8 0.624     NA    NA
 8 SRR2584863 1733343 NA    G     A       225 NA     FALSE    NA NA        11 0.992     NA    NA
 9 SRR2584863 2103887 NA    ACAG… ACAG…    56 NA     TRUE      2  0.667     3 0.902     NA    NA
10 SRR2584863 2333538 NA    AT    ATT     167 NA     TRUE      7  1         7 0.568     NA    NA
# … with 791 more rows, and 14 more variables: BQB <dbl>, MQSB <dbl>, SGB <dbl>, MQ0F <dbl>,
#   ICB <lgl>, HOB <lgl>, AC <dbl>, AN <dbl>, DP4 <chr>, MQ <dbl>, Indiv <chr>, gt_PL <dbl>,
#   gt_GT <dbl>, gt_GT_alleles <chr>
# ℹ Use `print(n = ...)` to see more rows, and `colnames()` to see all variable names

dplyr also provides useful functions to select columns based on their
names. For instance, ends_with() allows you to select columns that
ends with specific letters. For instance, if you wanted to select
columns that end with the letter "B":

r

select(variants, ends_with("B"))

Output

# A tibble: 801 × 8
      VDB   RPB   MQB   BQB   MQSB    SGB ICB   HOB  
    <dbl> <dbl> <dbl> <dbl>  <dbl>  <dbl> <lgl> <lgl>
 1 0.0257    NA    NA    NA NA     -0.556 NA    NA   
 2 0.0961     1     1     1 NA     -0.591 NA    NA   
 3 0.774     NA    NA    NA  0.975 -0.662 NA    NA   
 4 0.478     NA    NA    NA  1     -0.676 NA    NA   
 5 0.660     NA    NA    NA  0.916 -0.662 NA    NA   
 6 0.268     NA    NA    NA  0.916 -0.670 NA    NA   
 7 0.624     NA    NA    NA  0.901 -0.651 NA    NA   
 8 0.992     NA    NA    NA  1.01  -0.670 NA    NA   
 9 0.902     NA    NA    NA  1     -0.454 NA    NA   
10 0.568     NA    NA    NA  1.01  -0.617 NA    NA   
# … with 791 more rows
# ℹ Use `print(n = ...)` to see more rows
…
Solution

r

# First, we select "POS" and all columns with letter "i". This will contain columns     Indiv and FILTER. 
variants_subset <- select(variants, POS, contains("i"))

# Next, we remove columns Indiv and FILTER
variants_result <- select(variants_subset, -Indiv, -FILTER)
variants_result

Output

# A tibble: 801 × 7
       POS sample_id  ID    INDEL   IDV    IMF ICB  
     <dbl> <chr>      <lgl> <lgl> <dbl>  <dbl> <lgl>
 1    9972 SRR2584863 NA    FALSE    NA NA     NA   
 2  263235 SRR2584863 NA    FALSE    NA NA     NA   
 3  281923 SRR2584863 NA    FALSE    NA NA     NA   
 4  433359 SRR2584863 NA    TRUE     12  1     NA   
 5  473901 SRR2584863 NA    TRUE      9  0.9   NA   
 6  648692 SRR2584863 NA    FALSE    NA NA     NA   
 7 1331794 SRR2584863 NA    FALSE    NA NA     NA   
 8 1733343 SRR2584863 NA    FALSE    NA NA     NA   
 9 2103887 SRR2584863 NA    TRUE      2  0.667 NA   
10 2333538 SRR2584863 NA    TRUE      7  1     NA   
# … with 791 more rows
# ℹ Use `print(n = ...)` to see more rows
Alternative solution

r

variants_result <- select(variants, POS, contains("i"), -Indiv, -FILTER)

To choose rows, use filter():

r

filter(variants, sample_id == "SRR2584863")

Output

# A tibble: 25 × 29
   sample_id  CHROM     POS ID    REF   ALT    QUAL FILTER INDEL   IDV    IMF    DP    VDB   RPB
   <chr>      <chr>   <dbl> <lgl> <chr> <chr> <dbl> <lgl>  <lgl> <dbl>  <dbl> <dbl>  <dbl> <dbl>
 1 SRR2584863 CP000… 9.97e3 NA    T     G        91 NA     FALSE    NA NA         4 0.0257    NA
 2 SRR2584863 CP000… 2.63e5 NA    G     T        85 NA     FALSE    NA NA         6 0.0961     1
 3 SRR2584863 CP000… 2.82e5 NA    G     T       217 NA     FALSE    NA NA        10 0.774     NA
 4 SRR2584863 CP000… 4.33e5 NA    CTTT… CTTT…    64 NA     TRUE     12  1        12 0.478     NA
 5 SRR2584863 CP000… 4.74e5 NA    CCGC  CCGC…   228 NA     TRUE      9  0.9      10 0.660     NA
 6 SRR2584863 CP000… 6.49e5 NA    C     T       210 NA     FALSE    NA NA        10 0.268     NA
 7 SRR2584863 CP000… 1.33e6 NA    C     A       178 NA     FALSE    NA NA         8 0.624     NA
 8 SRR2584863 CP000… 1.73e6 NA    G     A       225 NA     FALSE    NA NA        11 0.992     NA
 9 SRR2584863 CP000… 2.10e6 NA    ACAG… ACAG…    56 NA     TRUE      2  0.667     3 0.902     NA
10 SRR2584863 CP000… 2.33e6 NA    AT    ATT     167 NA     TRUE      7  1         7 0.568     NA
# … with 15 more rows, and 15 more variables: MQB <dbl>, BQB <dbl>, MQSB <dbl>, SGB <dbl>,
#   MQ0F <dbl>, ICB <lgl>, HOB <lgl>, AC <dbl>, AN <dbl>, DP4 <chr>, MQ <dbl>, Indiv <chr>,
#   gt_PL <dbl>, gt_GT <dbl>, gt_GT_alleles <chr>
# ℹ Use `print(n = ...)` to see more rows, and `colnames()` to see all variable names
…
Select all the mutations that occurred between the positions 1e6 (one
million) and 2e6 (inclusive) that have a QUAL greater than 200, and
exclude INDEL mutations. Hint: to flip logical values such as TRUE to
a FALSE, we can use to negation symbol !. (eg. !TRUE == FALSE).

Solution

r

filter(variants, POS >= 1e6 & POS <= 2e6, QUAL > 200, !INDEL)

Output

# A tibble: 77 × 29
   sampl…¹ CHROM    POS ID    REF   ALT    QUAL FILTER INDEL   IDV   IMF    DP   VDB   RPB   MQB
   <chr>   <chr>  <dbl> <lgl> <chr> <chr> <dbl> <lgl>  <lgl> <dbl> <dbl> <dbl> <dbl> <dbl> <dbl>
 1 SRR258… CP00… 1.73e6 NA    G     A       225 NA     FALSE    NA    NA    11 0.992    NA    NA
 2 SRR258… CP00… 1.00e6 NA    A     G       225 NA     FALSE    NA    NA    15 0.481    NA    NA
 3 SRR258… CP00… 1.02e6 NA    A     G       225 NA     FALSE    NA    NA    12 0.242    NA    NA
 4 SRR258… CP00… 1.06e6 NA    C     T       225 NA     FALSE    NA    NA    17 0.346    NA    NA
 5 SRR258… CP00… 1.06e6 NA    A     G       206 NA     FALSE    NA    NA     9 0.630    NA    NA
 6 SRR258… CP00… 1.07e6 NA    G     T       225 NA     FALSE    NA    NA    11 0.349    NA    NA
 7 SRR258… CP00… 1.07e6 NA    T     C       225 NA     FALSE    NA    NA    12 0.196    NA    NA
 8 SRR258… CP00… 1.10e6 NA    C     T       225 NA     FALSE    NA    NA    15 0.454    NA    NAincluding
 9 SRR258… CP00… 1.11e6 NA    C     T       212 NA     FALSE    NA    NA     9 0.179    NA    NA
10 SRR258… CP00… 1.11e6 NA    A     G       225 NA     FALSE    NA    NA    14 0.909    NA    NA
# … with 67 more rows, 14 more variables: BQB <dbl>, MQSB <dbl>, SGB <dbl>, MQ0F <dbl>,
#   ICB <lgl>, HOB <lgl>, AC <dbl>, AN <dbl>, DP4 <chr>, MQ <dbl>, Indiv <chr>, gt_PL <dbl>,
#   gt_GT <dbl>, gt_GT_alleles <chr>, and abbreviated variable name ¹​sample_id
# ℹ Use `print(n = ...)` to see more rows, and `colnames()` to see all variable names
…
r

variants %>%   
  filter(sample_id == "SRR2584863") %>%   
  select(REF, ALT, DP)

Output

# A tibble: 25 × 3
   REF                              ALT                                                       DP
   <chr>                            <chr>                                                  <dbl>
 1 T                                G                                                          4
 2 G                                T                                                          6
 3 G                                T                                                         10
 4 CTTTTTTT                         CTTTTTTTT                                                 12
 5 CCGC                             CCGCGC                                                    10
 6 C                                T                                                         10
 7 C                                A                                                          8
 8 G                                A                                                         11
 9 ACAGCCAGCCAGCCAGCCAGCCAGCCAGCCAG ACAGCCAGCCAGCCAGCCAGCCAGCCAGCCAGCCAGCCAGCCAGCCAGCCAGC…     3
10 AT                               ATT                                                        7
# … with 15 more rows
# ℹ Use `print(n = ...)` to see more rows
…
SRR2584863_variants <- variants %>%   
  filter(sample_id == "SRR2584863") %>%   
  select(REF, ALT, DP)

This new object includes all of the data from this sample. Let's look at
just the first six rows to confirm it's what we want:

r

SRR2584863_variants

Output

# A tibble: 25 × 3
   REF                              ALT                                                       DP
   <chr>                            <chr>                                                  <dbl>
 1 T                                G                                                          4
 2 G                                T                                                          6
 3 G                                T                                                         10
 4 CTTTTTTT                         CTTTTTTTT                                                 12
 5 CCGC                             CCGCGC                                                    10
 6 C                                T                                                         10
 7 C                                A                                                          8
 8 G                                A                                                         11
 9 ACAGCCAGCCAGCCAGCCAGCCAGCCAGCCAG ACAGCCAGCCAGCCAGCCAGCCAGCCAGCCAGCCAGCCAGCCAGCCAGCCAGC…     3
10 AT                               ATT                                                        7
# … with 15 more rows
# ℹ Use `print(n = ...)` to see more rows
…
There are a lot of columns in our data set, so let's just look at the
sample_id, POS, QUAL, and POLPROB columns for now. Add a line
to the above code to only show those columns.

Solution

r

variants %>%   
  mutate(POLPROB = 1 - (10 ^ -(QUAL/10))) %>%
  select(sample_id, POS, QUAL, POLPROB)

Output

# A tibble: 801 × 4
   sample_id      POS  QUAL POLPROB
   <chr>        <dbl> <dbl>   <dbl>
 1 SRR2584863    9972    91    1.00
 2 SRR2584863  263235    85    1.00
 3 SRR2584863  281923   217    1   
 4 SRR2584863  433359    64    1.00
 5 SRR2584863  473901   228    1   
 6 SRR2584863  648692   210    1   
 7 SRR2584863 1331794   178    1   
 8 SRR2584863 1733343   225    1   
 9 SRR2584863 2103887    56    1.00
10 SRR2584863 2333538   167    1   
# … with 791 more rows
# ℹ Use `print(n = ...)` to see more rows
…
